// dm_assaults.res - created with RESGen v2.0.2.
// RESGen is made by Jeroen "ShadowLord" Bogers,
// with serveral improvements and additions by Zero3Cool.
// For more info go to http://resgen.hltools.com

// .res entries (8):
cs_assault.wad
gfx/env/city1bk.tga
gfx/env/city1dn.tga
gfx/env/city1ft.tga
gfx/env/city1lf.tga
gfx/env/city1rt.tga
gfx/env/city1up.tga
halflife.wad
